
******************************************************************************
This program contains Ipopt, a library for large-scale nonlinear optimization.
 Ipopt is released as open source code under the Eclipse Public License (EPL).
         For more information visit http://projects.coin-or.org/Ipopt
******************************************************************************

This is Ipopt version 3.12.1, running with linear solver mumps.
NOTE: Other linear solvers might be more efficient (see Ipopt documentation).

Number of nonzeros in equality constraint Jacobian...:        0
Number of nonzeros in inequality constraint Jacobian.:        0
Number of nonzeros in Lagrangian Hessian.............:        0

Total number of variables............................:     1119
                     variables with only lower bounds:        0
                variables with lower and upper bounds:        0
                     variables with only upper bounds:        0
Total number of equality constraints.................:        0
Total number of inequality constraints...............:        0
        inequality constraints with only lower bounds:        0
   inequality constraints with lower and upper bounds:        0
        inequality constraints with only upper bounds:        0

iter    objective    inf_pr   inf_du lg(mu)  ||d||  lg(rg) alpha_du alpha_pr  ls
   0  2.6659034e+05 0.00e+00 1.00e+02   0.0 0.00e+00    -  0.00e+00 0.00e+00   0
   1  2.2272032e+04 0.00e+00 3.98e+01 -11.0 1.00e+02    -  1.00e+00 1.56e-02f  7
   2  1.5483787e+04 0.00e+00 5.37e+00 -11.0 5.73e-01    -  1.00e+00 1.00e+00f  1
   3  1.4470509e+04 0.00e+00 5.17e+00 -11.0 9.93e-02    -  1.00e+00 1.00e+00f  1
   4  1.3861549e+04 0.00e+00 1.04e+01 -11.0 2.49e-01    -  1.00e+00 1.00e+00f  1
   5  1.2634562e+04 0.00e+00 6.11e+00 -11.0 1.48e-01    -  1.00e+00 1.00e+00f  1
   6  1.0866301e+04 0.00e+00 1.37e+01 -11.0 8.06e-01    -  1.00e+00 5.00e-01f  2
   7  9.9227141e+03 0.00e+00 1.57e+01 -11.0 1.33e+00    -  1.00e+00 2.50e-01f  3
   8  8.0274923e+03 0.00e+00 8.70e+00 -11.0 3.49e-01    -  1.00e+00 1.00e+00f  1
   9  7.0970102e+03 0.00e+00 3.86e+00 -11.0 2.84e-01    -  1.00e+00 1.00e+00f  1
iter    objective    inf_pr   inf_du lg(mu)  ||d||  lg(rg) alpha_du alpha_pr  ls
  10  6.7794096e+03 0.00e+00 4.31e+00 -11.0 1.91e-01    -  1.00e+00 1.00e+00f  1
  11  6.4494954e+03 0.00e+00 8.37e+00 -11.0 1.89e-01    -  1.00e+00 1.00e+00f  1
  12  6.1008002e+03 0.00e+00 3.02e+00 -11.0 1.92e-01    -  1.00e+00 1.00e+00f  1
  13  5.9210684e+03 0.00e+00 2.45e+00 -11.0 9.14e-02    -  1.00e+00 1.00e+00f  1
  14  5.7670672e+03 0.00e+00 1.64e+00 -11.0 8.07e-02    -  1.00e+00 1.00e+00f  1
  15  5.6465281e+03 0.00e+00 4.32e+00 -11.0 1.96e-01    -  1.00e+00 1.00e+00f  1
  16  5.5268593e+03 0.00e+00 3.38e+00 -11.0 2.20e-01    -  1.00e+00 1.00e+00f  1
  17  5.4283361e+03 0.00e+00 2.31e+00 -11.0 1.49e-01    -  1.00e+00 1.00e+00f  1
  18  5.3396938e+03 0.00e+00 1.90e+00 -11.0 8.64e-02    -  1.00e+00 1.00e+00f  1
  19  5.2984090e+03 0.00e+00 4.19e+00 -11.0 1.18e-01    -  1.00e+00 1.00e+00f  1
iter    objective    inf_pr   inf_du lg(mu)  ||d||  lg(rg) alpha_du alpha_pr  ls
  20  5.2375365e+03 0.00e+00 3.72e+00 -11.0 1.70e-01    -  1.00e+00 5.00e-01f  2
  21  5.1535670e+03 0.00e+00 1.10e+00 -11.0 8.99e-02    -  1.00e+00 1.00e+00f  1
  22  5.0953869e+03 0.00e+00 1.55e+00 -11.0 8.29e-02    -  1.00e+00 1.00e+00f  1
  23  5.0534786e+03 0.00e+00 2.52e+00 -11.0 2.29e-01    -  1.00e+00 5.00e-01f  2
  24  5.0070548e+03 0.00e+00 1.75e+00 -11.0 1.37e-01    -  1.00e+00 5.00e-01f  2
  25  4.9787844e+03 0.00e+00 4.24e+00 -11.0 1.71e-01    -  1.00e+00 1.00e+00f  1
  26  4.9341570e+03 0.00e+00 1.59e+00 -11.0 1.49e-01    -  1.00e+00 5.00e-01f  2
  27  4.9063543e+03 0.00e+00 2.26e+00 -11.0 7.78e-02    -  1.00e+00 1.00e+00f  1
  28  4.8703916e+03 0.00e+00 1.14e+00 -11.0 1.06e-01    -  1.00e+00 1.00e+00f  1
  29  4.8427812e+03 0.00e+00 5.93e-01 -11.0 4.25e-02    -  1.00e+00 1.00e+00f  1
iter    objective    inf_pr   inf_du lg(mu)  ||d||  lg(rg) alpha_du alpha_pr  ls
  30  4.8286948e+03 0.00e+00 1.36e+00 -11.0 6.63e-02    -  1.00e+00 1.00e+00f  1
  31  4.8197307e+03 0.00e+00 1.46e+00 -11.0 1.93e-01    -  1.00e+00 5.00e-01f  2
  32  4.8109222e+03 0.00e+00 1.08e+00 -11.0 7.08e-02    -  1.00e+00 1.00e+00f  1
  33  4.8039861e+03 0.00e+00 1.07e+00 -11.0 4.05e-02    -  1.00e+00 1.00e+00f  1
  34  4.7916011e+03 0.00e+00 5.08e-01 -11.0 2.64e-02    -  1.00e+00 1.00e+00f  1
  35  4.7879746e+03 0.00e+00 5.30e-01 -11.0 2.01e-02    -  1.00e+00 1.00e+00f  1
  36  4.7815068e+03 0.00e+00 5.97e-01 -11.0 5.75e-02    -  1.00e+00 1.00e+00f  1
  37  4.7759429e+03 0.00e+00 1.50e+00 -11.0 5.36e-01    -  1.00e+00 1.25e-01f  4
  38  4.7739473e+03 0.00e+00 1.32e+00 -11.0 2.09e-01    -  1.00e+00 5.00e-01f  2
  39  4.7568500e+03 0.00e+00 1.05e+00 -11.0 5.85e-02    -  1.00e+00 1.00e+00f  1
iter    objective    inf_pr   inf_du lg(mu)  ||d||  lg(rg) alpha_du alpha_pr  ls
  40  4.7368228e+03 0.00e+00 1.20e+00 -11.0 9.13e-02    -  1.00e+00 1.00e+00f  1
  41  4.7210403e+03 0.00e+00 1.87e+00 -11.0 1.65e-01    -  1.00e+00 5.00e-01f  2
  42  4.7115178e+03 0.00e+00 1.20e+00 -11.0 1.15e-01    -  1.00e+00 1.00e+00f  1
  43  4.7028778e+03 0.00e+00 1.40e+00 -11.0 9.14e-02    -  1.00e+00 5.00e-01f  2
  44  4.6912358e+03 0.00e+00 6.13e-01 -11.0 8.16e-02    -  1.00e+00 5.00e-01f  2
  45  4.6849898e+03 0.00e+00 5.47e-01 -11.0 2.72e-02    -  1.00e+00 1.00e+00f  1
  46  4.6810320e+03 0.00e+00 9.04e-01 -11.0 3.54e-02    -  1.00e+00 1.00e+00f  1
  47  4.6809308e+03 0.00e+00 6.67e-01 -11.0 6.58e-02    -  1.00e+00 1.00e+00f  1
  48  4.6764458e+03 0.00e+00 5.48e-01 -11.0 5.79e-02    -  1.00e+00 5.00e-01f  2
  49  4.6742550e+03 0.00e+00 2.66e-01 -11.0 2.86e-02    -  1.00e+00 1.00e+00f  1
iter    objective    inf_pr   inf_du lg(mu)  ||d||  lg(rg) alpha_du alpha_pr  ls
  50  4.6736565e+03 0.00e+00 6.44e-01 -11.0 1.93e-02    -  1.00e+00 1.00e+00f  1
  51  4.6722817e+03 0.00e+00 2.90e-01 -11.0 1.53e-02    -  1.00e+00 1.00e+00f  1
  52  4.6714363e+03 0.00e+00 1.71e-01 -11.0 1.10e-02    -  1.00e+00 1.00e+00f  1
  53  4.6707086e+03 0.00e+00 2.86e-01 -11.0 3.63e-02    -  1.00e+00 1.00e+00f  1
  54  4.6703437e+03 0.00e+00 3.18e-01 -11.0 4.90e-02    -  1.00e+00 5.00e-01f  2
  55  4.6698009e+03 0.00e+00 1.51e-01 -11.0 2.27e-02    -  1.00e+00 1.00e+00f  1
  56  4.6694169e+03 0.00e+00 9.84e-02 -11.0 7.68e-03    -  1.00e+00 1.00e+00f  1
  57  4.6693043e+03 0.00e+00 9.41e-02 -11.0 6.16e-03    -  1.00e+00 1.00e+00f  1
  58  4.6692084e+03 0.00e+00 1.08e-01 -11.0 4.96e-03    -  1.00e+00 1.00e+00f  1
  59  4.6691875e+03 0.00e+00 1.03e-01 -11.0 8.57e-03    -  1.00e+00 1.00e+00f  1
iter    objective    inf_pr   inf_du lg(mu)  ||d||  lg(rg) alpha_du alpha_pr  ls
  60  4.6690653e+03 0.00e+00 1.20e-01 -11.0 9.64e-03    -  1.00e+00 1.00e+00f  1
  61  4.6689845e+03 0.00e+00 1.23e-01 -11.0 1.04e-02    -  1.00e+00 1.00e+00f  1
  62  4.6689525e+03 0.00e+00 9.82e-02 -11.0 1.02e-02    -  1.00e+00 1.00e+00f  1
  63  4.6688475e+03 0.00e+00 6.61e-02 -11.0 4.25e-03    -  1.00e+00 1.00e+00f  1
  64  4.6688044e+03 0.00e+00 5.51e-02 -11.0 2.84e-03    -  1.00e+00 1.00e+00f  1
  65  4.6687557e+03 0.00e+00 5.83e-02 -11.0 5.87e-03    -  1.00e+00 1.00e+00f  1
  66  4.6686829e+03 0.00e+00 1.21e-01 -11.0 4.62e-02    -  1.00e+00 2.50e-01f  3
  67  4.6686192e+03 0.00e+00 1.17e-01 -11.0 1.34e-01    -  1.00e+00 1.25e-01f  4
  68  4.6685683e+03 0.00e+00 1.31e-01 -11.0 7.33e-02    -  1.00e+00 1.25e-01f  4
  69  4.6683875e+03 0.00e+00 2.20e-01 -11.0 4.61e-02    -  1.00e+00 5.00e-01f  2
iter    objective    inf_pr   inf_du lg(mu)  ||d||  lg(rg) alpha_du alpha_pr  ls
  70  4.6682716e+03 0.00e+00 1.95e-01 -11.0 1.38e-01    -  1.00e+00 2.50e-01f  3
  71  4.6680534e+03 0.00e+00 2.00e-01 -11.0 3.84e-02    -  1.00e+00 5.00e-01f  2
  72  4.6678918e+03 0.00e+00 2.42e-01 -11.0 1.88e-02    -  1.00e+00 1.00e+00f  1
  73  4.6675395e+03 0.00e+00 1.61e-01 -11.0 2.60e-02    -  1.00e+00 1.00e+00f  1
  74  4.6674344e+03 0.00e+00 1.41e-01 -11.0 1.64e-02    -  1.00e+00 1.00e+00f  1
  75  4.6672734e+03 0.00e+00 1.35e-01 -11.0 1.21e-02    -  1.00e+00 1.00e+00f  1
  76  4.6671949e+03 0.00e+00 7.71e-02 -11.0 9.67e-03    -  1.00e+00 1.00e+00f  1
  77  4.6671060e+03 0.00e+00 4.82e-02 -11.0 2.53e-03    -  1.00e+00 1.00e+00f  1
  78  4.6670794e+03 0.00e+00 3.12e-02 -11.0 1.19e-03    -  1.00e+00 1.00e+00f  1

Number of Iterations....: 78

                                   (scaled)                 (unscaled)
Objective...............:   1.8687830267038436e+02    4.6670793738097682e+03
Dual infeasibility......:   3.1178397672172373e-02    7.7864607396872654e-01
Constraint violation....:   0.0000000000000000e+00    0.0000000000000000e+00
Complementarity.........:   0.0000000000000000e+00    0.0000000000000000e+00
Overall NLP error.......:   3.1178397672172373e-02    7.7864607396872654e-01


Number of objective function evaluations             = 198
Number of objective gradient evaluations             = 79
Number of equality constraint evaluations            = 0
Number of inequality constraint evaluations          = 0
Number of equality constraint Jacobian evaluations   = 0
Number of inequality constraint Jacobian evaluations = 0
Number of Lagrangian Hessian evaluations             = 0
Total CPU secs in IPOPT (w/o function evaluations)   =      0.688
Total CPU secs in NLP function evaluations           =      1.044

EXIT: Optimal Solution Found.
Running MDS on data_fish/combined_Sen_merged_chr18.csv

Removed indices: [78,79,80,81,82,83,84,85,86,87,88,89,90,91,92,93,261,391]

Number of interactions: 66972
Number of variables: 1119
Number of constraints: 0
Number of nonzero Jacobian elements: 0

Inferred scaling factor: 1.2076839542664628


Writing to file sc_results_mds/sen_chr18_paint_nointer.txt
